{
  "count": 24406,
  "next": "https://api.rawg.io/api/creators?page=2&page_size=2",
  "previous": null,
  "results": [
    {
      "id": 70,
      "name": "Cris Velasco",
      "slug": "cris-velasco",
      "image": "https://media.rawg.io/media/persons/6ea/6ea06e2ddd6c0190e5134f61d826f30f.jpg",
      "image_background": "https://media.rawg.io/media/games/588/588c6bdff3d4baf66ec36b1c05b793bf.jpg",
      "games_count": 48,
      "positions": [
        {
          "id": 3,
          "name": "composer",
          "slug": "composer"
        }
      ],
      "games": [
        {
          "id": 802,
          "slug": "borderlands-2",
          "name": "Borderlands 2",
          "added": 9818
        },
        {
          "id": 4828,
          "slug": "borderlands",
          "name": "Borderlands",
          "added": 6313
        },
        {
          "id": 17540,
          "slug": "injustice-gods-among-us-ultimate-edition",
          "name": "Injustice: Gods Among Us Ultimate Edition",
          "added": 5868
        },
        {
          "id": 3387,
          "slug": "bloodborne",
          "name": "Bloodborne",
          "added": 5716
        },
        {
          "id": 10243,
          "slug": "company-of-heroes-2",
          "name": "Company of Heroes 2",
          "added": 5334
        },
        {
          "id": 4502,
          "slug": "darksiders",
          "name": "Darksiders",
          "added": 5201
        }
      ]
    },
    {
      "id": 3,
      "name": "Dan Houser",
      "slug": "dan-houser",
      "image": "https://media.rawg.io/media/persons/8ba/8babec5b685ff0be2beee43f3b7b3eb5.jpg",
      "image_background": "https://media.rawg.io/media/games/84d/84da2ac3fdfc6507807a1808595afb12.jpg",
      "games_count": 28,
      "positions": [
        {
          "id": 1,
          "name": "writer",
          "slug": "writer"
        },
        {
          "id": 5,
          "name": "producer",
          "slug": "producer"
        },
        {
          "id": 6,
          "name": "designer",
          "slug": "designer"
        }
      ],
      "games": [
        {
          "id": 3498,
          "slug": "grand-theft-auto-v",
          "name": "Grand Theft Auto V",
          "added": 13067
        },
        {
          "id": 28,
          "slug": "red-dead-redemption-2",
          "name": "Red Dead Redemption 2",
          "added": 8468
        },
        {
          "id": 4459,
          "slug": "grand-theft-auto-iv",
          "name": "Grand Theft Auto IV",
          "added": 7859
        },
        {
          "id": 416,
          "slug": "grand-theft-auto-san-andreas",
          "name": "Grand Theft Auto: San Andreas",
          "added": 6422
        },
        {
          "id": 4514,
          "slug": "la-noire",
          "name": "L.A. Noire",
          "added": 6290
        },
        {
          "id": 430,
          "slug": "grand-theft-auto-vice-city",
          "name": "Grand Theft Auto: Vice City",
          "added": 5495
        }
      ]
    }
  ]
}