{
  "count": 212621,
  "next": "https://api.rawg.io/api/developers?page=2&page_size=2",
  "previous": null,
  "results": [
    {
      "id": 18893,
      "name": "Feral Interactive",
      "slug": "feral-interactive",
      "games_count": 105,
      "image_background": "https://media.rawg.io/media/games/e4f/e4fb3fd188f61fabec48dca22e6ef28a.jpg",
      "games": [
        {
          "id": 7689,
          "slug": "rise-of-the-tomb-raider",
          "name": "Rise of the Tomb Raider",
          "added": 7063
        },
        {
          "id": 11973,
          "slug": "shadow-of-mordor",
          "name": "Middle-earth: Shadow of Mordor",
          "added": 6856
        },
        {
          "id": 10035,
          "slug": "hitman",
          "name": "HITMAN",
          "added": 6821
        },
        {
          "id": 4427,
          "slug": "bioshock-2",
          "name": "BioShock 2",
          "added": 6681
        },
        {
          "id": 10754,
          "slug": "bioshock-remastered",
          "name": "BioShock Remastered",
          "added": 6222
        },
        {
          "id": 13910,
          "slug": "xcom-enemy-unknown",
          "name": "XCOM: Enemy Unknown",
          "added": 5722
        }
      ]
    },
    {
      "id": 1612,
      "name": "Valve Software",
      "slug": "valve-software",
      "games_count": 39,
      "image_background": "https://media.rawg.io/media/games/7a2/7a2500ee8b2c0e1ff268bb4479463dea.jpg",
      "games": [
        {
          "id": 4200,
          "slug": "portal-2",
          "name": "Portal 2",
          "added": 11436
        },
        {
          "id": 12020,
          "slug": "left-4-dead-2",
          "name": "Left 4 Dead 2",
          "added": 9882
        },
        {
          "id": 13536,
          "slug": "portal",
          "name": "Portal",
          "added": 9706
        },
        {
          "id": 4291,
          "slug": "counter-strike-global-offensive",
          "name": "Counter-Strike: Global Offensive",
          "added": 9517
        },
        {
          "id": 13537,
          "slug": "half-life-2",
          "name": "Half-Life 2",
          "added": 8824
        },
        {
          "id": 11859,
          "slug": "team-fortress-2",
          "name": "Team Fortress 2",
          "added": 8269
        }
      ]
    }
  ]
}