{
  "count": 156,
  "next": "https://api.rawg.io/api/games/25/reddit?page=2",
  "previous": null,
  "results": [
    {
      "id": 1486343,
      "name": "So i finished the story a while ago and I’m looking for more to do in the game.",
      "text": "<p>I&#8217;ve been doing mainly online conquests for a while now but I&#8217;m starting to get bored</p>",
      "image": null,
      "url": "https://www.reddit.com/r/shadow_of_war/comments/ja4oh2/so_i_finished_the_story_a_while_ago_and_im/",
      "username": "/u/lmaoyeahh2",
      "username_url": "https://www.reddit.com/user/lmaoyeahh2",
      "created": "2020-10-13T02:19:40Z"
    },
    {
      "id": 1486342,
      "name": "Hi there 💯🍻🍻",
      "text": "",
      "image": "https://b.thumbs.redditmedia.com/ajEh25E913Ha-POqtfehZYjXZ0AF1Z2iI7DQj11aB_k.jpg",
      "url": "https://www.reddit.com/r/shadow_of_war/comments/ja6ste/hi_there/",
      "username": "/u/Mandanga367",
      "username_url": "",
      "created": "2020-10-13T04:48:39Z"
    },
    {
      "id": 1486341,
      "name": "Conversation between my captain and one of his caragor riders in my fortress",
      "text": "<p>The captain said, &#8220;If the bright lord knows elf magic why doesn&#8217;t he get rid of the rats?&#8221; The orc said, &#8220;that&#8217;s because rats are in a league with the elves. They both got big ears right?&#8221;</p>",
      "image": null,
      "url": "https://www.reddit.com/r/shadow_of_war/comments/ja5eet/conversation_between_my_captain_and_one_of_his/",
      "username": "/u/JimmyBob7211",
      "username_url": "https://www.reddit.com/user/JimmyBob7211",
      "created": "2020-10-13T03:07:54Z"
    },
    {
      "id": 1486340,
      "name": "Taking my fort back",
      "text": "<p>Hi All,</p><p>(delete if not allowed)</p><p>Thought I'd post one of my fort attacks.</p><p>&#8203;</p><p><a href=\"https://www.youtube.com/watch?v=7ee9KQXeKRM\">https://www.youtube.com/watch?v=7ee9KQXeKRM</a></p>",
      "image": null,
      "url": "https://www.reddit.com/r/shadow_of_war/comments/jabz5m/taking_my_fort_back/",
      "username": "/u/iM-iMport",
      "username_url": "https://www.reddit.com/user/iM-iMport",
      "created": "2020-10-13T12:02:15Z"
    },
    {
      "id": 1486339,
      "name": "Is this a cheat?",
      "text": "<p>Went online and encountered this Warchief. I was like WTF lol </p><p><a href=\"https://preview.redd.it/cld2b8yodus51.png?width=1998&amp;format=png&amp;auto=webp&amp;s=025495c23bab771398fbab7f28e0f34ca2336191\">https://preview.redd.it/cld2b8yodus51.png?width=1998&amp;format=png&amp;auto=webp&amp;s=025495c23bab771398fbab7f28e0f34ca2336191</a></p>",
      "image": "https://a.thumbs.redditmedia.com/0tNSxhL3bZZaabjdMYG7YRySVc_C-N0BRb4ebajKId8.jpg",
      "url": "https://www.reddit.com/r/shadow_of_war/comments/jaaz83/is_this_a_cheat/",
      "username": "/u/davegru203",
      "username_url": "",
      "created": "2020-10-13T10:48:10Z"
    },
    {
      "id": 1486338,
      "name": "Any way to import more captains from Shadow of Mordor into Shadow of War?",
      "text": "<p>I have like 5 captains some branded some not that I've gotten attached to.</p><p>I wanted to know what are my chances they could appear in Shadow of War or if there is a way to import them into Shadow of War besides the 1 Nemesis and 1 Follower?</p>",
      "image": null,
      "url": "https://www.reddit.com/r/shadow_of_war/comments/jadvcx/any_way_to_import_more_captains_from_shadow_of/",
      "username": "/u/edo98",
      "username_url": "https://www.reddit.com/user/edo98",
      "created": "2020-10-13T13:55:23Z"
    },
    {
      "id": 1486337,
      "name": "So i shamed a captain right after dropping flies on him and this happened",
      "text": "",
      "image": "https://b.thumbs.redditmedia.com/zqoKfLndUevS6HOFDINXXM_pIz5QOPoKr7GYukKIBKM.jpg",
      "url": "https://www.reddit.com/r/shadow_of_war/comments/ja8y4k/so_i_shamed_a_captain_right_after_dropping_flies/",
      "username": "/u/SpawnpeekZ",
      "username_url": "",
      "created": "2020-10-13T07:49:41Z"
    },
    {
      "id": 1486336,
      "name": "Garrison won't load",
      "text": "<p>For like the past 7 hours, my garrison has been \"updating\" even though there is like, 2 things to update (vendetta gera chests) So I'm just wondering. Is there any fix for this?</p>",
      "image": null,
      "url": "https://www.reddit.com/r/shadow_of_war/comments/jaliam/garrison_wont_load/",
      "username": "/u/infernostorm4",
      "username_url": "https://www.reddit.com/user/infernostorm4",
      "created": "2020-10-13T20:17:19Z"
    },
    {
      "id": 1486335,
      "name": "Griding to level 80",
      "text": "<p>When should i grind to level 80 and how other then quests</p>",
      "image": null,
      "url": "https://www.reddit.com/r/shadow_of_war/comments/jagpji/griding_to_level_80/",
      "username": "/u/potatogodyouknowit",
      "username_url": "https://www.reddit.com/user/potatogodyouknowit",
      "created": "2020-10-13T16:19:29Z"
    },
    {
      "id": 1486334,
      "name": "Damage stacking question",
      "text": "<p>If I have a dagger, sword and bow, each with a enchant \"poisened targets take 50% more damage, does this mean, any attack at a poisened enemy will deal 150% more damage?</p><p>Or is it separated, bow on its own does 50% more damage poisened enemies, dagger on its own 50% more damage too as well as the sword?</p>",
      "image": null,
      "url": "https://www.reddit.com/r/shadow_of_war/comments/jar2nf/damage_stacking_question/",
      "username": "/u/Beatljuz",
      "username_url": "https://www.reddit.com/user/Beatljuz",
      "created": "2020-10-14T01:28:22Z"
    }
  ]
}