{
  "count": 30,
  "next": "https://api.rawg.io/api/games/23/achievements?page=2",
  "previous": null,
  "results": [
    {
      "id": 1012413,
      "name": "Access",
      "description": "Complete level 1",
      "image": "https://media.rawg.io/media/achievements/b86/b8682a38e3ed2c9a08a498c25fcb0cfe.jpg",
      "percent": "100.00"
    },
    {
      "id": 1012416,
      "name": "Power",
      "description": "Complete level 4",
      "image": "https://media.rawg.io/media/achievements/e0e/e0e7e9b3cb8792cf6c1c568e40748b8f.jpg",
      "percent": "100.00"
    },
    {
      "id": 1012414,
      "name": "Inflow",
      "description": "Complete level 2",
      "image": "https://media.rawg.io/media/achievements/e56/e5665833451f7810fb83fddbb994e63a.jpg",
      "percent": "100.00"
    },
    {
      "id": 1012415,
      "name": "Reservoir",
      "description": "Complete level 3",
      "image": "https://media.rawg.io/media/achievements/be7/be75e19c3abba1edb9496fcffab530fd.jpg",
      "percent": "100.00"
    },
    {
      "id": 1296824,
      "name": "The best scavenger in the village",
      "description": "Collect all 100 treasure items",
      "image": "https://media.rawg.io/media/achievements/f69/f694c28928ef1b9c74e6047bd3d95512.jpg",
      "percent": "0.00"
    },
    {
      "id": 1296817,
      "name": "Sleeps like a Warden",
      "description": "Collect all the Echoes related to your family",
      "image": "https://media.rawg.io/media/achievements/4cc/4cc3cc4b8d3c8d8c417eaa0026c47e67.jpg",
      "percent": "0.00"
    },
    {
      "id": 1296811,
      "name": "We sleep no more!",
      "description": "Defeat 15 powerful Halberd Golems",
      "image": "https://media.rawg.io/media/achievements/603/6036f0faa5805f5c6d1fc9e808d5f19f.jpg",
      "percent": "0.00"
    },
    {
      "id": 1296814,
      "name": "We will rule again!",
      "description": "Defeat 5 enormous Stone Axe Golems",
      "image": "https://media.rawg.io/media/achievements/6c0/6c026f07d940f0113d3c9186ce743b10.jpg",
      "percent": "0.00"
    },
    {
      "id": 1296819,
      "name": "Easy as dreaming",
      "description": "Collect all the Echoes from River that tell her story",
      "image": "https://media.rawg.io/media/achievements/679/679179a7bc0fb4832de21bee1bf39fb5.jpg",
      "percent": "0.00"
    },
    {
      "id": 1296821,
      "name": "We dream or we starve",
      "description": "Scavenge for all the golem artifacts",
      "image": "https://media.rawg.io/media/achievements/ab8/ab8c30a0382a2eb4f87ce8af37e9b0d0.jpg",
      "percent": "0.00"
    }
  ]
}