{
  "count": 50,
  "next": "https://api.rawg.io/api/games/4019/youtube?page=2",
  "previous": null,
  "results": [
    {
      "id": 19506435,
      "external_id": "APRT_hndtC8",
      "channel_id": "UC7_YxT-KID8kRbqZo7MyscQ",
      "channel_title": "Markiplier",
      "name": "ENTER THE LOST VILLAGE | Fatal Frame 2 - Part 1",
      "description": "The start of what many people consider to be the scariest game ever made! Alien: Isolation ...",
      "created": "2015-02-13T16:08:42Z",
      "view_count": 5167428,
      "comments_count": 15665,
      "like_count": 92319,
      "dislike_count": 1304,
      "favorite_count": 0,
      "thumbnails": {
        "high": {
          "url": "https://i.ytimg.com/vi/APRT_hndtC8/hqdefault.jpg",
          "width": 480,
          "height": 360
        },
        "medium": {
          "url": "https://i.ytimg.com/vi/APRT_hndtC8/mqdefault.jpg",
          "width": 320,
          "height": 180
        },
        "default": {
          "url": "https://i.ytimg.com/vi/APRT_hndtC8/default.jpg",
          "width": 120,
          "height": 90
        },
        "sddefault": {
          "url": "https://i.ytimg.com/vi/APRT_hndtC8/sddefault.jpg",
          "width": 640,
          "height": 480
        },
        "maxresdefault": {
          "url": "https://i.ytimg.com/vi/APRT_hndtC8/maxresdefault.jpg"
        }
      }
    },
    {
      "id": 24027415,
      "external_id": "NCHvRtoSIpk",
      "channel_id": "UC_BXQNOzX7ALIf8FkDqOahQ",
      "channel_title": "EricVanWilderman",
      "name": "Fatal Frame 2/Project Zero 2 (Wii) All Endings + Walkthrough",
      "description": "This is a guide on how to get all 6 endings for Fatal Frame 2/Project Zero 2 Wii Edition. This was made for my subscribers who wanted to see my reactions to ...",
      "created": "2013-09-16T15:15:30Z",
      "view_count": 200919,
      "comments_count": 558,
      "like_count": 4709,
      "dislike_count": 138,
      "favorite_count": 0,
      "thumbnails": {
        "high": {
          "url": "https://i.ytimg.com/vi/NCHvRtoSIpk/hqdefault.jpg",
          "width": 480,
          "height": 360
        },
        "medium": {
          "url": "https://i.ytimg.com/vi/NCHvRtoSIpk/mqdefault.jpg",
          "width": 320,
          "height": 180
        },
        "default": {
          "url": "https://i.ytimg.com/vi/NCHvRtoSIpk/default.jpg",
          "width": 120,
          "height": 90
        },
        "sddefault": {
          "url": "https://i.ytimg.com/vi/NCHvRtoSIpk/sddefault.jpg",
          "width": 640,
          "height": 480
        },
        "maxresdefault": {
          "url": "https://i.ytimg.com/vi/NCHvRtoSIpk/maxresdefault.jpg"
        }
      }
    },
    {
      "id": 19506434,
      "external_id": "FZlR47H2oQY",
      "channel_id": "UC-3J5xNrAbTLbU1gN8mMpOA",
      "channel_title": "Nitro Rad",
      "name": "Fatal Frame II: Crimson Butterfly - Nitro Rad",
      "description": "The most loved title in the series. Fatal Frame II takes everything that made the original unique, and turns it into something truly special. We'll also take a look at ...",
      "created": "2019-09-19T17:26:24Z",
      "view_count": 172262,
      "comments_count": 1519,
      "like_count": 8674,
      "dislike_count": 77,
      "favorite_count": 0,
      "thumbnails": {
        "high": {
          "url": "https://i.ytimg.com/vi/FZlR47H2oQY/hqdefault.jpg",
          "width": 480,
          "height": 360
        },
        "medium": {
          "url": "https://i.ytimg.com/vi/FZlR47H2oQY/mqdefault.jpg",
          "width": 320,
          "height": 180
        },
        "default": {
          "url": "https://i.ytimg.com/vi/FZlR47H2oQY/default.jpg",
          "width": 120,
          "height": 90
        },
        "sddefault": {
          "url": "https://i.ytimg.com/vi/FZlR47H2oQY/sddefault.jpg",
          "width": 640,
          "height": 480
        },
        "maxresdefault": {
          "url": "https://i.ytimg.com/vi/FZlR47H2oQY/maxresdefault.jpg"
        }
      }
    },
    {
      "id": 19506433,
      "external_id": "I0eUpzK04y4",
      "channel_id": "UC4jOVIDDfiSo_8Ywrdqb95w",
      "channel_title": "SHN Survival Horror Network",
      "name": "Fatal Frame 2: Crimson Butterfly | Playthrough Gameplay No Commentary",
      "description": "SHN Rating for Fatal Frame 2: Crimson Butterfly Twin sisters Mio and Mayu wind up trapped in an abandoned village. Forced to explore, they find ...",
      "created": "2017-03-14T00:14:05Z",
      "view_count": 166732,
      "comments_count": 299,
      "like_count": 2056,
      "dislike_count": 59,
      "favorite_count": 0,
      "thumbnails": {
        "high": {
          "url": "https://i.ytimg.com/vi/I0eUpzK04y4/hqdefault.jpg",
          "width": 480,
          "height": 360
        },
        "medium": {
          "url": "https://i.ytimg.com/vi/I0eUpzK04y4/mqdefault.jpg",
          "width": 320,
          "height": 180
        },
        "default": {
          "url": "https://i.ytimg.com/vi/I0eUpzK04y4/default.jpg",
          "width": 120,
          "height": 90
        },
        "sddefault": {
          "url": "https://i.ytimg.com/vi/I0eUpzK04y4/sddefault.jpg",
          "width": 640,
          "height": 480
        },
        "maxresdefault": {
          "url": "https://i.ytimg.com/vi/I0eUpzK04y4/maxresdefault.jpg"
        }
      }
    },
    {
      "id": 22847833,
      "external_id": "Hm36zGxNQSU",
      "channel_id": "UCILZQNk7ywZ7CWh6rvzmvpQ",
      "channel_title": "IkxGP",
      "name": "Fatal Frame II: Crimson Butterfly - Complete Walkthrough (Hard)",
      "description": "Fatal Frame II: Crimson Butterfly Playing in Hard difficulty (Hellish Abyss Ending) My best time: http://i.imgur.com/z4DLkpZ.jpg Results: Difficulty: Hard Clear ...",
      "created": "2012-06-29T06:01:33Z",
      "view_count": 72663,
      "comments_count": 111,
      "like_count": 610,
      "dislike_count": 21,
      "favorite_count": 0,
      "thumbnails": {
        "high": {
          "url": "https://i.ytimg.com/vi/Hm36zGxNQSU/hqdefault.jpg",
          "width": 480,
          "height": 360
        },
        "medium": {
          "url": "https://i.ytimg.com/vi/Hm36zGxNQSU/mqdefault.jpg",
          "width": 320,
          "height": 180
        },
        "default": {
          "url": "https://i.ytimg.com/vi/Hm36zGxNQSU/default.jpg",
          "width": 120,
          "height": 90
        },
        "sddefault": {
          "url": "https://i.ytimg.com/vi/Hm36zGxNQSU/sddefault.jpg",
          "width": 640,
          "height": 480
        },
        "maxresdefault": {
          "url": "https://i.ytimg.com/vi/Hm36zGxNQSU/maxresdefault.jpg"
        }
      }
    },
    {
      "id": 19506438,
      "external_id": "NomrZgyl0XA",
      "channel_id": "UCNF9riO4KPVswmyUCud-7xA",
      "channel_title": "tombevil",
      "name": "Fatal Frame 2: Crimson Butterfly (PS2) - All Endings",
      "description": "Resolution 720p played on PS3. Fatal Frame 2 (NA) / Project Zero 2 (EU) - All endings. - Escape Ending 0:00 - Normal Ending 2:00 - Good Ending 5:30 Story: ...",
      "created": "2015-09-22T16:57:36Z",
      "view_count": 51323,
      "comments_count": 69,
      "like_count": 536,
      "dislike_count": 14,
      "favorite_count": 0,
      "thumbnails": {
        "high": {
          "url": "https://i.ytimg.com/vi/NomrZgyl0XA/hqdefault.jpg",
          "width": 480,
          "height": 360
        },
        "medium": {
          "url": "https://i.ytimg.com/vi/NomrZgyl0XA/mqdefault.jpg",
          "width": 320,
          "height": 180
        },
        "default": {
          "url": "https://i.ytimg.com/vi/NomrZgyl0XA/default.jpg",
          "width": 120,
          "height": 90
        },
        "sddefault": {
          "url": "https://i.ytimg.com/vi/NomrZgyl0XA/sddefault.jpg",
          "width": 640,
          "height": 480
        },
        "maxresdefault": {
          "url": "https://i.ytimg.com/vi/NomrZgyl0XA/maxresdefault.jpg"
        }
      }
    },
    {
      "id": 24158543,
      "external_id": "GsgD7zX1v-o",
      "channel_id": "UC91HDcpMGsPCnK14l7sjyDQ",
      "channel_title": "SirOldSchool",
      "name": "История Fatal Frame II: Crimson Butterfly (PS/Xbox/Wii) | 零 ～紅い蝶～ | Project Zero 2",
      "description": "Продолжение истории Fatal Frame, на этот раз я рассмотрел 3 платформы и длительность ролика превышает час. ВНИМАН...",
      "created": "2017-04-07T16:53:01Z",
      "view_count": 44714,
      "comments_count": 141,
      "like_count": 2450,
      "dislike_count": 11,
      "favorite_count": 0,
      "thumbnails": {
        "high": {
          "url": "https://i.ytimg.com/vi/GsgD7zX1v-o/hqdefault.jpg",
          "width": 480,
          "height": 360
        },
        "medium": {
          "url": "https://i.ytimg.com/vi/GsgD7zX1v-o/mqdefault.jpg",
          "width": 320,
          "height": 180
        },
        "default": {
          "url": "https://i.ytimg.com/vi/GsgD7zX1v-o/default.jpg",
          "width": 120,
          "height": 90
        },
        "sddefault": {
          "url": "https://i.ytimg.com/vi/GsgD7zX1v-o/sddefault.jpg",
          "width": 640,
          "height": 480
        },
        "maxresdefault": {
          "url": "https://i.ytimg.com/vi/GsgD7zX1v-o/maxresdefault.jpg"
        }
      }
    },
    {
      "id": 19506444,
      "external_id": "3auCXQXKdLI",
      "channel_id": "UCwr4KRVaVS9edrb63jie98g",
      "channel_title": "RelyonHorror",
      "name": "Fatal Frame 2: Crimson Butterfly- Final Boss",
      "description": "Spoilers abound. The final boss from Fatal Frame 2: Crimson Butterfly (Project Zero II). Played on a blind (first) run through the game. It all ends here, the climax ...",
      "created": "2011-08-30T14:21:41Z",
      "view_count": 39394,
      "comments_count": 19,
      "like_count": 120,
      "dislike_count": 7,
      "favorite_count": 0,
      "thumbnails": {
        "high": {
          "url": "https://i.ytimg.com/vi/3auCXQXKdLI/hqdefault.jpg",
          "width": 480,
          "height": 360
        },
        "medium": {
          "url": "https://i.ytimg.com/vi/3auCXQXKdLI/mqdefault.jpg",
          "width": 320,
          "height": 180
        },
        "default": {
          "url": "https://i.ytimg.com/vi/3auCXQXKdLI/default.jpg",
          "width": 120,
          "height": 90
        },
        "sddefault": {
          "url": "https://i.ytimg.com/vi/3auCXQXKdLI/sddefault.jpg",
          "width": 640,
          "height": 480
        },
        "maxresdefault": {
          "url": "https://i.ytimg.com/vi/3auCXQXKdLI/maxresdefault.jpg"
        }
      }
    },
    {
      "id": 19506457,
      "external_id": "jTERZb0z4oA",
      "channel_id": "UCVi6ofFy7QyJJrZ9l0-fwbQ",
      "channel_title": "World of Longplays",
      "name": "Xbox Longplay [005] Fatal Frame II: Crimson Butterfly Director&#39;s Cut (Part 1 of 3)",
      "description": "http://www.longplays.net Played By: RickyC Survival horrors are the genre i suck at and hate most and this is the first one i've actually completed. Its my first full ...",
      "created": "2009-04-01T00:32:02Z",
      "view_count": 35033,
      "comments_count": 36,
      "like_count": 232,
      "dislike_count": 8,
      "favorite_count": 0,
      "thumbnails": {
        "high": {
          "url": "https://i.ytimg.com/vi/jTERZb0z4oA/hqdefault.jpg",
          "width": 480,
          "height": 360
        },
        "medium": {
          "url": "https://i.ytimg.com/vi/jTERZb0z4oA/mqdefault.jpg",
          "width": 320,
          "height": 180
        },
        "default": {
          "url": "https://i.ytimg.com/vi/jTERZb0z4oA/default.jpg",
          "width": 120,
          "height": 90
        },
        "sddefault": {
          "url": "https://i.ytimg.com/vi/jTERZb0z4oA/hqdefault.jpg",
          "width": 480,
          "height": 360
        },
        "maxresdefault": {
          "url": "https://i.ytimg.com/vi/jTERZb0z4oA/hqdefault.jpg",
          "width": 480,
          "height": 360
        }
      }
    },
    {
      "id": 22847847,
      "external_id": "FAukBqp-mZ4",
      "channel_id": "UCwr4KRVaVS9edrb63jie98g",
      "channel_title": "RelyonHorror",
      "name": "Fatal Frame 2: Crimson Butterfly- Crimson Butterfly Ending (Canon Ending)",
      "description": "Spoilers abound. The Crimson Butterfly ending in Fatal Frame 2: Crimson Butterfly (Project Zero II), or the Normal difficulty ending or the ending you get when ...",
      "created": "2011-08-30T15:22:27Z",
      "view_count": 31776,
      "comments_count": 62,
      "like_count": 271,
      "dislike_count": 5,
      "favorite_count": 0,
      "thumbnails": {
        "high": {
          "url": "https://i.ytimg.com/vi/FAukBqp-mZ4/hqdefault.jpg",
          "width": 480,
          "height": 360
        },
        "medium": {
          "url": "https://i.ytimg.com/vi/FAukBqp-mZ4/mqdefault.jpg",
          "width": 320,
          "height": 180
        },
        "default": {
          "url": "https://i.ytimg.com/vi/FAukBqp-mZ4/default.jpg",
          "width": 120,
          "height": 90
        },
        "sddefault": {
          "url": "https://i.ytimg.com/vi/FAukBqp-mZ4/sddefault.jpg",
          "width": 640,
          "height": 480
        },
        "maxresdefault": {
          "url": "https://i.ytimg.com/vi/FAukBqp-mZ4/maxresdefault.jpg"
        }
      }
    }
  ]
}