{
  "count": 14,
  "next": "https://api.rawg.io/api/platforms/lists/parents?page=2&page_size=2",
  "previous": null,
  "results": [
    {
      "id": 1,
      "name": "PC",
      "slug": "pc",
      "platforms": [
        {
          "id": 4,
          "name": "PC",
          "slug": "pc",
          "games_count": 264754,
          "image_background": "https://media.rawg.io/media/games/490/49016e06ae2103881ff6373248843069.jpg",
          "image": null,
          "year_start": null,
          "year_end": null
        }
      ]
    },
    {
      "id": 2,
      "name": "PlayStation",
      "slug": "playstation",
      "platforms": [
        {
          "id": 187,
          "name": "PlayStation 5",
          "slug": "playstation5",
          "games_count": 90,
          "image_background": "https://media.rawg.io/media/games/b40/b40eba32d8715d5fdf9634939fe0eca3.jpg",
          "image": null,
          "year_start": 2020,
          "year_end": null
        },
        {
          "id": 18,
          "name": "PlayStation 4",
          "slug": "playstation4",
          "games_count": 5184,
          "image_background": "https://media.rawg.io/media/games/91c/91c4f377c1e09755b60a0102c5252843.jpg",
          "image": null,
          "year_start": null,
          "year_end": null
        },
        {
          "id": 16,
          "name": "PlayStation 3",
          "slug": "playstation3",
          "games_count": 3606,
          "image_background": "https://media.rawg.io/media/games/1bb/1bb86c35ffa3eb0d299b01a7c65bf908.jpg",
          "image": null,
          "year_start": null,
          "year_end": null
        },
        {
          "id": 15,
          "name": "PlayStation 2",
          "slug": "playstation2",
          "games_count": 1834,
          "image_background": "https://media.rawg.io/media/games/dd7/dd72d8a527cd9245c7eb7cd05aa53efa.jpg",
          "image": null,
          "year_start": null,
          "year_end": null
        },
        {
          "id": 27,
          "name": "PlayStation",
          "slug": "playstation1",
          "games_count": 1518,
          "image_background": "https://media.rawg.io/media/screenshots/df5/df5eee47410d0625f4f2ef708c95faf9.jpg",
          "image": null,
          "year_start": null,
          "year_end": null
        },
        {
          "id": 19,
          "name": "PS Vita",
          "slug": "ps-vita",
          "games_count": 1926,
          "image_background": "https://media.rawg.io/media/games/ffe/ffed87105b14f5beff72ff44a7793fd5.jpg",
          "image": null,
          "year_start": null,
          "year_end": null
        },
        {
          "id": 17,
          "name": "PSP",
          "slug": "psp",
          "games_count": 1560,
          "image_background": "https://media.rawg.io/media/games/b2d/b2db4496b084b235742cf6e9894bbf36.jpg",
          "image": null,
          "year_start": null,
          "year_end": null
        }
      ]
    }
  ]
}