{
  "count": 51,
  "next": "https://api.rawg.io/api/platforms?page=2&page_size=2",
  "previous": null,
  "results": [
    {
      "id": 4,
      "name": "PC",
      "slug": "pc",
      "games_count": 264754,
      "image_background": "https://media.rawg.io/media/games/490/49016e06ae2103881ff6373248843069.jpg",
      "image": null,
      "year_start": null,
      "year_end": null,
      "games": [
        {
          "id": 3498,
          "slug": "grand-theft-auto-v",
          "name": "Grand Theft Auto V",
          "added": 13067
        },
        {
          "id": 4200,
          "slug": "portal-2",
          "name": "Portal 2",
          "added": 11436
        },
        {
          "id": 3328,
          "slug": "the-witcher-3-wild-hunt",
          "name": "The Witcher 3: Wild Hunt",
          "added": 11238
        },
        {
          "id": 5286,
          "slug": "tomb-raider",
          "name": "Tomb Raider (2013)",
          "added": 10356
        },
        {
          "id": 5679,
          "slug": "the-elder-scrolls-v-skyrim",
          "name": "The Elder Scrolls V: Skyrim",
          "added": 10241
        },
        {
          "id": 12020,
          "slug": "left-4-dead-2",
          "name": "Left 4 Dead 2",
          "added": 9882
        }
      ]
    },
    {
      "id": 187,
      "name": "PlayStation 5",
      "slug": "playstation5",
      "games_count": 90,
      "image_background": "https://media.rawg.io/media/games/b40/b40eba32d8715d5fdf9634939fe0eca3.jpg",
      "image": null,
      "year_start": 2020,
      "year_end": null,
      "games": [
        {
          "id": 3498,
          "slug": "grand-theft-auto-v",
          "name": "Grand Theft Auto V",
          "added": 13067
        },
        {
          "id": 32,
          "slug": "destiny-2",
          "name": "Destiny 2",
          "added": 7555
        },
        {
          "id": 766,
          "slug": "warframe",
          "name": "Warframe",
          "added": 7202
        },
        {
          "id": 8488,
          "slug": "tom-clancys-rainbow-six-siege-2",
          "name": "Tom Clancy's Rainbow Six Siege",
          "added": 4142
        },
        {
          "id": 51325,
          "slug": "the-last-of-us-part-2",
          "name": "The Last of Us Part II",
          "added": 3571
        },
        {
          "id": 58812,
          "slug": "control",
          "name": "Control",
          "added": 3171
        }
      ]
    }
  ]
}