{
  "count": 44546,
  "next": "https://api.rawg.io/api/publishers?page=2&page_size=2",
  "previous": null,
  "results": [
    {
      "id": 354,
      "name": "Electronic Arts",
      "slug": "electronic-arts",
      "games_count": 1226,
      "image_background": "https://media.rawg.io/media/games/7cf/7cf38d2d80267c121c6d0d361e9429ce.jpg",
      "games": [
        {
          "id": 4200,
          "slug": "portal-2",
          "name": "Portal 2",
          "added": 11436
        },
        {
          "id": 12020,
          "slug": "left-4-dead-2",
          "name": "Left 4 Dead 2",
          "added": 9882
        },
        {
          "id": 4252,
          "slug": "mirrors-edge",
          "name": "Mirror's Edge",
          "added": 6640
        },
        {
          "id": 4806,
          "slug": "mass-effect-2",
          "name": "Mass Effect 2",
          "added": 6098
        },
        {
          "id": 4570,
          "slug": "dead-space",
          "name": "Dead Space",
          "added": 5920
        },
        {
          "id": 4166,
          "slug": "mass-effect",
          "name": "Mass Effect",
          "added": 5674
        }
      ]
    },
    {
      "id": 308,
      "name": "Square Enix",
      "slug": "square-enix",
      "games_count": 466,
      "image_background": "https://media.rawg.io/media/games/410/41033a495ce8f7fd4b0934bdb975f12a.jpg",
      "games": [
        {
          "id": 5286,
          "slug": "tomb-raider",
          "name": "Tomb Raider (2013)",
          "added": 10356
        },
        {
          "id": 3439,
          "slug": "life-is-strange-episode-1-2",
          "name": "Life is Strange",
          "added": 9686
        },
        {
          "id": 7689,
          "slug": "rise-of-the-tomb-raider",
          "name": "Rise of the Tomb Raider",
          "added": 7063
        },
        {
          "id": 10035,
          "slug": "hitman",
          "name": "HITMAN",
          "added": 6821
        },
        {
          "id": 1447,
          "slug": "deus-ex-mankind-divided",
          "name": "Deus Ex: Mankind Divided",
          "added": 6440
        },
        {
          "id": 5583,
          "slug": "hitman-absolution",
          "name": "Hitman: Absolution",
          "added": 5983
        }
      ]
    }
  ]
}