{
  "count": 10,
  "next": "https://api.rawg.io/api/stores?page=2&page_size=2",
  "previous": null,
  "results": [
    {
      "id": 1,
      "name": "Steam",
      "domain": "store.steampowered.com",
      "slug": "steam",
      "games_count": 45657,
      "image_background": "https://media.rawg.io/media/games/736/73619bd336c894d6941d926bfd563946.jpg",
      "games": [
        {
          "id": 3498,
          "slug": "grand-theft-auto-v",
          "name": "Grand Theft Auto V",
          "added": 13067
        },
        {
          "id": 4200,
          "slug": "portal-2",
          "name": "Portal 2",
          "added": 11436
        },
        {
          "id": 3328,
          "slug": "the-witcher-3-wild-hunt",
          "name": "The Witcher 3: Wild Hunt",
          "added": 11238
        },
        {
          "id": 5286,
          "slug": "tomb-raider",
          "name": "Tomb Raider (2013)",
          "added": 10356
        },
        {
          "id": 5679,
          "slug": "the-elder-scrolls-v-skyrim",
          "name": "The Elder Scrolls V: Skyrim",
          "added": 10241
        },
        {
          "id": 12020,
          "slug": "left-4-dead-2",
          "name": "Left 4 Dead 2",
          "added": 9882
        }
      ]
    },
    {
      "id": 3,
      "name": "PlayStation Store",
      "domain": "store.playstation.com",
      "slug": "playstation-store",
      "games_count": 6836,
      "image_background": "https://media.rawg.io/media/games/84d/84da2ac3fdfc6507807a1808595afb12.jpg",
      "games": [
        {
          "id": 3498,
          "slug": "grand-theft-auto-v",
          "name": "Grand Theft Auto V",
          "added": 13067
        },
        {
          "id": 4200,
          "slug": "portal-2",
          "name": "Portal 2",
          "added": 11436
        },
        {
          "id": 3328,
          "slug": "the-witcher-3-wild-hunt",
          "name": "The Witcher 3: Wild Hunt",
          "added": 11238
        },
        {
          "id": 5286,
          "slug": "tomb-raider",
          "name": "Tomb Raider (2013)",
          "added": 10356
        },
        {
          "id": 5679,
          "slug": "the-elder-scrolls-v-skyrim",
          "name": "The Elder Scrolls V: Skyrim",
          "added": 10241
        },
        {
          "id": 802,
          "slug": "borderlands-2",
          "name": "Borderlands 2",
          "added": 9818
        }
      ]
    }
  ]
}